{
  "version": "1.0.0-*",

  "dependencies": {
    "Context": "1.0.0-*",
    "Microsoft.Extensions.Logging": "1.0.0",
    "Microsoft.Extensions.Logging.Debug": "1.0.0",
    "Models": "1.0.0-*",
    "NETStandard.Library": "1.6.0",
    "NLog.Extensions.Logging": "1.0.0-*"
  },

  "frameworks": {
    "netstandard1.6": {
      "imports": "dnxcore50"
    }
  }
}
